^C:\USERS\USER\SOURCE\REPOS\CONSOLEAPPLICATION3\PG-COMMON\STDAFX.CPP
C:\USERS\USER\SOURCE\REPOS\CONSOLEAPPLICATION3\PG-COMMON\DEBUG\PG-COMMON.PCH
C:\USERS\USER\SOURCE\REPOS\CONSOLEAPPLICATION3\PG-COMMON\DEBUG\VC141.PDB
C:\USERS\USER\SOURCE\REPOS\CONSOLEAPPLICATION3\PG-COMMON\DEBUG\VC141.IDB
C:\USERS\USER\SOURCE\REPOS\CONSOLEAPPLICATION3\PG-COMMON\DEBUG\STDAFX.OBJ
^C:\USERS\USER\SOURCE\REPOS\CONSOLEAPPLICATION3\PG-COMMON\DLLMAIN.CPP|C:\USERS\USER\SOURCE\REPOS\CONSOLEAPPLICATION3\PG-COMMON\PG-COMMON.CPP|C:\USERS\USER\SOURCE\REPOS\CONSOLEAPPLICATION3\PG-COMMON\PG_ENGINE.CPP
C:\USERS\USER\SOURCE\REPOS\CONSOLEAPPLICATION3\PG-COMMON\DEBUG\VC141.PDB
C:\USERS\USER\SOURCE\REPOS\CONSOLEAPPLICATION3\PG-COMMON\DEBUG\VC141.IDB
C:\USERS\USER\SOURCE\REPOS\CONSOLEAPPLICATION3\PG-COMMON\DEBUG\PG_ENGINE.OBJ
C:\USERS\USER\SOURCE\REPOS\CONSOLEAPPLICATION3\PG-COMMON\DEBUG\PG-COMMON.OBJ
C:\USERS\USER\SOURCE\REPOS\CONSOLEAPPLICATION3\PG-COMMON\DEBUG\DLLMAIN.OBJ
^C:\USERS\USER\SOURCE\REPOS\CONSOLEAPPLICATION3\PG-COMMON\DLLMAIN.CPP
C:\USERS\USER\SOURCE\REPOS\CONSOLEAPPLICATION3\PG-COMMON\DEBUG\VC141.PDB
^C:\USERS\USER\SOURCE\REPOS\CONSOLEAPPLICATION3\PG-COMMON\PG-COMMON.CPP
C:\USERS\USER\SOURCE\REPOS\CONSOLEAPPLICATION3\PG-COMMON\DEBUG\VC141.PDB
^C:\USERS\USER\SOURCE\REPOS\CONSOLEAPPLICATION3\PG-COMMON\PG_ENGINE.CPP|C:\USERS\USER\SOURCE\REPOS\CONSOLEAPPLICATION3\PG-COMMON\PG_KERNEL.CPP
C:\USERS\USER\SOURCE\REPOS\CONSOLEAPPLICATION3\PG-COMMON\DEBUG\VC141.PDB
C:\USERS\USER\SOURCE\REPOS\CONSOLEAPPLICATION3\PG-COMMON\DEBUG\VC141.IDB
C:\USERS\USER\SOURCE\REPOS\CONSOLEAPPLICATION3\PG-COMMON\DEBUG\PG_ENGINE.OBJ
^C:\USERS\USER\SOURCE\REPOS\CONSOLEAPPLICATION3\PG-COMMON\PG_ENGINE.CPP
C:\USERS\USER\SOURCE\REPOS\CONSOLEAPPLICATION3\PG-COMMON\DEBUG\PG_ENGINE.OBJ
^C:\USERS\USER\SOURCE\REPOS\CONSOLEAPPLICATION3\PG-COMMON\PG_KERNEL.CPP
C:\USERS\USER\SOURCE\REPOS\CONSOLEAPPLICATION3\PG-COMMON\DEBUG\VC141.PDB
C:\USERS\USER\SOURCE\REPOS\CONSOLEAPPLICATION3\PG-COMMON\DEBUG\VC141.IDB
C:\USERS\USER\SOURCE\REPOS\CONSOLEAPPLICATION3\PG-COMMON\DEBUG\PG_KERNEL.OBJ
